909736 383062 525
186206 646265 509
747334 154827 509
158318 741913 509
859511 400855 525
943656 728971 525
948837 762544 525
729112 494832 509
567385 652714 509
852875 212623 525
817970 612577 509
885303 449200 525
821457 750032 468
964422 640392 525
689080 275348 509
464989 414138 444
558312 349890 470
615675 477679 470
457886 598435 470
933913 234876 525
453597 640279 509
831399 48232 509
341381 171451 443
601436 575470 434
189701 901105 525
407590 790280 509
942274 644625 525
182586 63338 383
488567 517327 470
161539 604741 470
493939 688391 509
307344 127194 443
593562 102578 470
519583 646241 509
440549 37291 449
671843 539587 509
225127 515990 470
119048 679901 509
938905 269774 525
925457 151106 525
323505 624505 470
106158 114400 354
379556 937880 525
927859 844386 476
739086 666879 504
954054 947287 414
716057 890099 525
604255 341076 470
207904 680320 509
698139 838586 525
249809 118936 443
7795 97357 351
3350 93942 351
108206 354654 443
641725 562192 509
995724 526289 525
318147 927958 525
356861 519581 470
614383 86407 470
740747 712687 424
7326 988392 525
429978 264965 449
467889 638421 509
601521 47727 470
75461 73618 325
381839 109564 443
303452 109755 443
918799 779924 525
241165 83008 443
428808 261500 449
929654 602218 525
814337 860214 525
15029 380351 443
780442 802587 468
755599 871001 525
40172 778330 509
543744 367662 470
600165 187249 470
182146 384074 443
965949 621114 525
504289 349434 449
956763 705915 525
297195 915957 525
193522 48101 383
160952 672132 509
254674 432073 449
998021 161049 525
246887 805358 509
607168 968063 525
968003 570260 525
508282 783549 509
978240 292281 525
120722 726149 509
93371 187984 383
139504 774046 509
697696 28216 509
996857 702203 525
350324 852902 525
236932 152777 443
178257 690460 509
943421 58979 525
108801 393457 443
55675 550549 470
185430 167885 365
761678 272577 509
522833 914084 525
267601 125351 443
364558 714413 509
697973 722291 504
975210 842552 507
523068 459077 470
809789 554601 509
104083 736763 509
916431 440371 525
755392 136886 509
915100 529638 525
710783 272420 509
14819 324267 443
60447 845626 525
183330 455712 449
169046 897297 525
955816 339789 525
868332 155624 525
213485 568635 470
636239 356796 509
475011 579130 470
122561 747152 509
178380 521224 470
522340 361442 470
578764 143729 470
82923 940981 525
483477 817224 509
544282 419538 470
349892 265949 441
756392 374117 509
925432 323149 525
175264 51433 383
586580 451337 470
266259 187233 443
581796 450967 470
29177 745999 509
90238 383759 443
924202 595187 525
257426 999364 525
494425 546608 470
572591 999077 525
291820 83319 443
308035 648402 509
995409 26762 525
224218 332822 443
838572 482487 525
322417 676034 509
726125 297728 509
833422 144383 509
50425 873669 525
317787 821448 509
169296 307639 443
726600 173842 509
390258 52834 443
391140 545094 470
589822 584002 372
714574 620509 509
909186 4418 525
394293 492335 449
878423 532920 525
679954 824301 504
212069 689765 509
834511 367797 509
559007 489624 470
942646 947810 383
720286 663055 504
961285 31853 525
292821 281378 389
263245 884007 525
202311 473331 449
433443 7909 449
44857 562575 470
50969 916675 525
218558 404391 443
653501 23203 509
341351 548783 470
823015 881148 525
402195 882544 525
339256 591381 470
691396 536741 509
857176 157818 525
939872 342158 525
347018 306324 441
221519 770182 509
522523 234793 470
750852 319147 509
218986 982151 525
798437 935594 525
414483 269641 449
752598 776570 468
166864 779546 509
422408 106729 449
595101 672280 509
76878 102031 351
898720 610617 525
686820 931751 525
292329 92863 443
346086 568342 470
91585 102502 341
59011 464412 449
926276 556008 525
866484 505126 525
701484 788608 504
219065 464101 449
728869 142827 509
155204 443670 449
968375 862657 507
329552 548991 470
970951 242703 525
115485 868498 525
59719 805744 509
662518 755393 504
555286 720996 509
506173 887402 525
663162 368609 509
121111 814302 509
804308 6866 509
511699 41959 449
159765 538781 470
62225 63869 330
740798 610060 509
449649 900058 525
714536 63848 509
732443 446740 509
436080 705314 509
793115 388355 509
416462 599836 470
713017 677486 504
548873 589792 434
79305 242811 443
219452 945148 525
169417 739233 509
924299 331591 525
599689 99237 470
282045 72248 443
876302 492670 525
628790 756451 504
194824 412931 449
491394 465922 413
182269 990764 525
592994 544416 452
939304 677333 525
705838 695977 504
429869 863503 525
814608 908796 525
